digraph G {
size="7, 7"
root=Doctor
mindist=2
overlap=scale
splines=true
graph [label="Level 2.0: User Interface", labelloc=t, fontsize=20]

{
	node [shape=plaintext, fontsize=16];
	"CoreApplication";
}

Doctor [shape=box]
UserInteraction [shape=circle, label="1.1\nUser Interaction"]
UserDisplay [shape=circle, label="1.2\nUser Display"]
GenerateView [shape=circle, label="1.3\nGenerate View"]
MarshalData [shape=circle, label="1.4\nMarshal Data"]

UserDisplay -> Doctor [len=2]
UserInteraction -> MarshalData [len=2]
Doctor -> UserInteraction [len=2]
GenerateView -> UserDisplay [len=2]
MarshalData -> GenerateView [len=2]
MarshalData -> CoreApplication [len=4]
UserInteraction -> UserDisplay [len=2]
CoreApplication -> MarshalData [len=4]
}


