digraph G {
size="7, 7"
mindist=2
root=CoreDataView
overlap=scale
splines=true
ranksep=2
graph [label="Level 3.0: Marshal Data Diagram", labelloc=t, fontsize=20]

{
	node [shape=plaintext, fontsize=16];
	"CoreApplication";
	"UserInteraction";
	"GenerateView";
}

ReceiveChangeNotification [shape=circle, label="1.4.1\nReceive Changes"]
CoreDataView [shape=circle, label="1.4.2\nCore Data View"]
MergeChangedData [shape=circle, label="1.4.3\nMerge Data Changes"]

UserInteraction -> ReceiveChangeNotification
ReceiveChangeNotification -> MergeChangedData
CoreApplication -> CoreDataView
CoreDataView -> ReceiveChangeNotification
CoreDataView -> MergeChangedData
MergeChangedData -> GenerateView
MergeChangedData -> CoreDataView
}


